{
  "ABOUT": "About",
  "ACTIVATE": "Activate",
  "ADD": "Add",
  "ADDRESS":"Address",
  "ADD_NEW_CATEGORY":"Add new category",
  "ADD_NEW_VENUE":"Add new venue",
  "ADD_VENUE":"Add venue",
  "BASIC_DATA":"Basic data",
  "CATEGORIES": "Categories",
  "CATEGORY_DELETED":"Category deleted",
  "CLOSE":"Close",
  "CONFIRM_PASSWORD": "Confirm password",
  "COMMENT_BUTTON": "Post",
  "COMMENT_FIELD": "Comment...",
  "COMMENT_TITLE": "Reviews",
  "CROATIAN_DESCRIPTION":"Croatian description",
  "CROATIAN_NAME":"Croatian name",
  "DEACTIVATE": "Deactivate",
  "DELETE": "Delete",
  "DESCRIPTION":"Description",
  "DESC_EN":"English description",
  "DESC_HR":"Croatian description",
  "DESC_KR":"Korean description",
  "DETAILS":"Details",
  "EDIT":"Edit",
  "EMAIL": "Email",
  "EMAIL_SENT":"An email with a link to reset your password has been sent.",
  "ENGLISH_DESCRIPTION":"English description",
  "ENGLISH_NAME":"English name",
  "ENTER_EMAIL":"Enter your email address",
  "ENTER_PASSWORD":"Please enter your new password.",
  "FULL_NAME": "Full name",
  "FORGOT_PASSWORD": "Forgot your password?",
  "IMAGE": "Image",
  "KOREAN_DESCRIPTION":"Korean description",
  "KOREAN_NAME":"Korean name",
  "LANG": "en",
  "LINK_SENT": "A link for resetting your password will be sent to you shortly.",
  "LOGIN": "Sign in",
  "LOGOUT": "Sign out",
  "NAME": "Name",
  "NAME_EN": "English name",
  "NAME_HR": "Croatian name",
  "NAME_KR": "Korean name",
  "PASSWORD": "Password",
  "PASSWORD_MATCH":"Your passwords don't match.",
  "PHONE":"Phone number",
  "REGISTER": "Register",
  "RESET_PASSWORD":"Reset password",
  "ROLE": "Role",
  "SAVE":"Save",
  "UPDATE_CATEGORY":"Update category",
  "UPDATE_VENUE":"Update venue",
  "USERS": "Users",
  "VENUES": "Venues",
  "VENUE_DELETED":"Venue successfully deleted",
  "VENUE_NOT_DELETED":"Could not delete venue",
  "WEBSITE":"Website",
  "WELCOME_TO_ZAGREB_BODY": "Zagreb (Croatian pronunciation: is the capital and the largest city of Croatia. It is located in the northwest of the country, along the Sava river, at the southern slopes of the Medvednica mountain. Zagreb lies at an elevation of approximately 122 m (400 ft) above sea level. In the last official census of 2011 the population of the City of Zagreb was 792,875. The wider Zagreb metropolitan area includes the City of Zagreb and the separate Zagreb County bringing the total metropolitan area population up to 1,113,111. It is the biggest metropolitan area in Croatia, and the only one with a population of over one million.",
  "WELCOME_TO_ZAGREB_TITLE": "Welcome to Zagreb",
  "MENU": "Menu",
  "SEARCH": "Search venues",
  "SUBMIT": "Submit"
}